{
   "artists":{
      "href":"https://api.spotify.com/v1/search?query=Drake&type=artist&offset=0&limit=10",
      "items":[
         {
            "external_urls":{
               "spotify":"https://open.spotify.com/artist/3TVXtAsR1Inumwj472S9r4"
            },
            "followers":{
               "href":null,
               "total":77190824
            },
            "genres":[
               "canadian hip hop",
               "canadian pop",
               "hip hop",
               "rap",
               "toronto rap"
            ],
            "href":"https://api.spotify.com/v1/artists/3TVXtAsR1Inumwj472S9r4",
            "id":"3TVXtAsR1Inumwj472S9r4",
            "images":[
               {
                  "height":640,
                  "url":"https://i.scdn.co/image/ab6761610000e5eb4293385d324db8558179afd9",
                  "width":640
               },
               {
                  "height":320,
                  "url":"https://i.scdn.co/image/ab676161000051744293385d324db8558179afd9",
                  "width":320
               },
               {
                  "height":160,
                  "url":"https://i.scdn.co/image/ab6761610000f1784293385d324db8558179afd9",
                  "width":160
               }
            ],
            "name":"Drake",
            "popularity":93,
            "type":"artist",
            "uri":"spotify:artist:3TVXtAsR1Inumwj472S9r4"
         },
         {
            "external_urls":{
               "spotify":"https://open.spotify.com/artist/0p4ViyfJUTW0IT4SCBLexf"
            },
            "followers":{
               "href":null,
               "total":321617
            },
            "genres":[
               "cali rap"
            ],
            "href":"https://api.spotify.com/v1/artists/0p4ViyfJUTW0IT4SCBLexf",
            "id":"0p4ViyfJUTW0IT4SCBLexf",
            "images":[
               {
                  "height":640,
                  "url":"https://i.scdn.co/image/ab6761610000e5eba603aef1d62687aa6af6f01f",
                  "width":640
               },
               {
                  "height":320,
                  "url":"https://i.scdn.co/image/ab67616100005174a603aef1d62687aa6af6f01f",
                  "width":320
               },
               {
                  "height":160,
                  "url":"https://i.scdn.co/image/ab6761610000f178a603aef1d62687aa6af6f01f",
                  "width":160
               }
            ],
            "name":"Drakeo the Ruler",
            "popularity":59,
            "type":"artist",
            "uri":"spotify:artist:0p4ViyfJUTW0IT4SCBLexf"
         },
         {
            "external_urls":{
               "spotify":"https://open.spotify.com/artist/4mskfuiHWZ3nX3qAdeaGiR"
            },
            "followers":{
               "href":null,
               "total":117971
            },
            "genres":[

            ],
            "href":"https://api.spotify.com/v1/artists/4mskfuiHWZ3nX3qAdeaGiR",
            "id":"4mskfuiHWZ3nX3qAdeaGiR",
            "images":[
               {
                  "height":640,
                  "url":"https://i.scdn.co/image/ab6761610000e5eb2061bbe8748cb2ec6b72ca52",
                  "width":640
               },
               {
                  "height":320,
                  "url":"https://i.scdn.co/image/ab676161000051742061bbe8748cb2ec6b72ca52",
                  "width":320
               },
               {
                  "height":160,
                  "url":"https://i.scdn.co/image/ab6761610000f1782061bbe8748cb2ec6b72ca52",
                  "width":160
               }
            ],
            "name":"Drake Milligan",
            "popularity":51,
            "type":"artist",
            "uri":"spotify:artist:4mskfuiHWZ3nX3qAdeaGiR"
         },
         {
            "external_urls":{
               "spotify":"https://open.spotify.com/artist/29ijED2bnnprp2TciAK1aO"
            },
            "followers":{
               "href":null,
               "total":110140
            },
            "genres":[

            ],
            "href":"https://api.spotify.com/v1/artists/29ijED2bnnprp2TciAK1aO",
            "id":"29ijED2bnnprp2TciAK1aO",
            "images":[
               {
                  "height":640,
                  "url":"https://i.scdn.co/image/ab6761610000e5ebfcdf7ed1c10fd9f03bd2e14e",
                  "width":640
               },
               {
                  "height":320,
                  "url":"https://i.scdn.co/image/ab67616100005174fcdf7ed1c10fd9f03bd2e14e",
                  "width":320
               },
               {
                  "height":160,
                  "url":"https://i.scdn.co/image/ab6761610000f178fcdf7ed1c10fd9f03bd2e14e",
                  "width":160
               }
            ],
            "name":"Drake White",
            "popularity":52,
            "type":"artist",
            "uri":"spotify:artist:29ijED2bnnprp2TciAK1aO"
         },
         {
            "external_urls":{
               "spotify":"https://open.spotify.com/artist/03ilIKH0i08IxmjKcn63ne"
            },
            "followers":{
               "href":null,
               "total":377476
            },
            "genres":[

            ],
            "href":"https://api.spotify.com/v1/artists/03ilIKH0i08IxmjKcn63ne",
            "id":"03ilIKH0i08IxmjKcn63ne",
            "images":[
               {
                  "height":640,
                  "url":"https://i.scdn.co/image/ab6761610000e5ebf022697d475649654541eecc",
                  "width":640
               },
               {
                  "height":320,
                  "url":"https://i.scdn.co/image/ab67616100005174f022697d475649654541eecc",
                  "width":320
               },
               {
                  "height":160,
                  "url":"https://i.scdn.co/image/ab6761610000f178f022697d475649654541eecc",
                  "width":160
               }
            ],
            "name":"Drake Bell",
            "popularity":47,
            "type":"artist",
            "uri":"spotify:artist:03ilIKH0i08IxmjKcn63ne"
         },
         {
            "external_urls":{
               "spotify":"https://open.spotify.com/artist/06HL4z0CvFAxyc27GXpf02"
            },
            "followers":{
               "href":null,
               "total":79667986
            },
            "genres":[
               "pop"
            ],
            "href":"https://api.spotify.com/v1/artists/06HL4z0CvFAxyc27GXpf02",
            "id":"06HL4z0CvFAxyc27GXpf02",
            "images":[
               {
                  "height":640,
                  "url":"https://i.scdn.co/image/ab6761610000e5ebf173136b94ae2f75f49f8b2b",
                  "width":640
               },
               {
                  "height":320,
                  "url":"https://i.scdn.co/image/ab67616100005174f173136b94ae2f75f49f8b2b",
                  "width":320
               },
               {
                  "height":160,
                  "url":"https://i.scdn.co/image/ab6761610000f178f173136b94ae2f75f49f8b2b",
                  "width":160
               }
            ],
            "name":"Taylor Swift",
            "popularity":100,
            "type":"artist",
            "uri":"spotify:artist:06HL4z0CvFAxyc27GXpf02"
         },
         {
            "external_urls":{
               "spotify":"https://open.spotify.com/artist/1swkyc2nwzfkcD1aLCSkxK"
            },
            "followers":{
               "href":null,
               "total":1549
            },
            "genres":[

            ],
            "href":"https://api.spotify.com/v1/artists/1swkyc2nwzfkcD1aLCSkxK",
            "id":"1swkyc2nwzfkcD1aLCSkxK",
            "images":[
               {
                  "height":640,
                  "url":"https://i.scdn.co/image/ab6761610000e5ebcf4e2cae915bb0f680640718",
                  "width":640
               },
               {
                  "height":320,
                  "url":"https://i.scdn.co/image/ab67616100005174cf4e2cae915bb0f680640718",
                  "width":320
               },
               {
                  "height":160,
                  "url":"https://i.scdn.co/image/ab6761610000f178cf4e2cae915bb0f680640718",
                  "width":160
               }
            ],
            "name":"draken",
            "popularity":44,
            "type":"artist",
            "uri":"spotify:artist:1swkyc2nwzfkcD1aLCSkxK"
         },
         {
            "external_urls":{
               "spotify":"https://open.spotify.com/artist/5c3GLXai8YOMid29ZEuR9y"
            },
            "followers":{
               "href":null,
               "total":731913
            },
            "genres":[
               "british folk",
               "folk",
               "melancholia",
               "singer-songwriter"
            ],
            "href":"https://api.spotify.com/v1/artists/5c3GLXai8YOMid29ZEuR9y",
            "id":"5c3GLXai8YOMid29ZEuR9y",
            "images":[
               {
                  "height":1484,
                  "url":"https://i.scdn.co/image/d364b498f85ae764cd278fbba9a8ed7f00c3e434",
                  "width":1000
               },
               {
                  "height":950,
                  "url":"https://i.scdn.co/image/087fb05851e498c2791ca99000acf35b0fd49f19",
                  "width":640
               },
               {
                  "height":297,
                  "url":"https://i.scdn.co/image/9a74a7d885abe5da94ac812546d0146cfe4a1ceb",
                  "width":200
               },
               {
                  "height":95,
                  "url":"https://i.scdn.co/image/267080662cf3c019ea8020a4e0e8dd5a7be4d909",
                  "width":64
               }
            ],
            "name":"Nick Drake",
            "popularity":58,
            "type":"artist",
            "uri":"spotify:artist:5c3GLXai8YOMid29ZEuR9y"
         },
         {
            "external_urls":{
               "spotify":"https://open.spotify.com/artist/2m5ti7YuYYCVs8xfZgnVkx"
            },
            "followers":{
               "href":null,
               "total":13980
            },
            "genres":[

            ],
            "href":"https://api.spotify.com/v1/artists/2m5ti7YuYYCVs8xfZgnVkx",
            "id":"2m5ti7YuYYCVs8xfZgnVkx",
            "images":[
               {
                  "height":640,
                  "url":"https://i.scdn.co/image/ab67616d0000b2737bbff6206f9bb6de3f4b55a4",
                  "width":640
               },
               {
                  "height":300,
                  "url":"https://i.scdn.co/image/ab67616d00001e027bbff6206f9bb6de3f4b55a4",
                  "width":300
               },
               {
                  "height":64,
                  "url":"https://i.scdn.co/image/ab67616d000048517bbff6206f9bb6de3f4b55a4",
                  "width":64
               }
            ],
            "name":"Drake",
            "popularity":2,
            "type":"artist",
            "uri":"spotify:artist:2m5ti7YuYYCVs8xfZgnVkx"
         },
         {
            "external_urls":{
               "spotify":"https://open.spotify.com/artist/55zx7AihSM91XuqPqofoct"
            },
            "followers":{
               "href":null,
               "total":3949
            },
            "genres":[

            ],
            "href":"https://api.spotify.com/v1/artists/55zx7AihSM91XuqPqofoct",
            "id":"55zx7AihSM91XuqPqofoct",
            "images":[
               {
                  "height":640,
                  "url":"https://i.scdn.co/image/ab6761610000e5eb4490c75b4c567fb1fd7308ef",
                  "width":640
               },
               {
                  "height":320,
                  "url":"https://i.scdn.co/image/ab676161000051744490c75b4c567fb1fd7308ef",
                  "width":320
               },
               {
                  "height":160,
                  "url":"https://i.scdn.co/image/ab6761610000f1784490c75b4c567fb1fd7308ef",
                  "width":160
               }
            ],
            "name":"Drake McCain",
            "popularity":29,
            "type":"artist",
            "uri":"spotify:artist:55zx7AihSM91XuqPqofoct"
         }
      ],
      "limit":10,
      "next":"https://api.spotify.com/v1/search?query=Drake&type=artist&offset=10&limit=10",
      "offset":0,
      "previous":null,
      "total":15
   }
}